<?xml version="1.0" encoding="UTF-8"?>
<session version="1.0">
<refactoring comment="Delete 4 resources" deleteContents="false" description="Delete 4 resources" element1="/SocketServerWin/DebugLinuxARM/lib_SocketCommLibrary.dll" element2="/SocketServerWin/DebugLinuxARM/libgcc_s_dw2-1.dll" element3="/SocketServerWin/DebugLinuxARM/libstdc++-6.dll" element4="/SocketServerWin/DebugLinuxARM/pthreadGCE2.dll" flags="7" id="org.eclipse.ltk.core.refactoring.delete.resources" resources="4" stamp="1400902255779"/>
</session>