<?xml version="1.0" encoding="UTF-8"?>
<session version="1.0">
<refactoring comment="Rename resource &apos;SocketServer/src/SocketServer.cpp&apos; to &apos;_MainSocketServer.cpp&apos;" description="Rename resource &apos;SocketServer.cpp&apos;" flags="7" id="org.eclipse.ltk.core.refactoring.rename.resource" input="src/SocketServer.cpp" name="_MainSocketServer.cpp" stamp="1399165845333" updateReferences="true"/>
</session>